Draft Quarto document
…
here("data-raw/nurses-stress/stress/6B/6B_1587569373//EDA.csv.gz") |>
  read()

# A tibble: 100 × 2
   collection_datetime      eda
   <dttm>                 <dbl>
 1 2020-04-22 15:29:39 0.000961
 2 2020-04-22 15:29:43 0.000640
 3 2020-04-22 15:29:47 0       
 4 2020-04-22 15:29:48 0       
 5 2020-04-22 15:29:51 0       
 6 2020-04-22 15:30:23 0.00192 
 7 2020-04-22 15:31:06 0.486   
 8 2020-04-22 15:31:26 0.504   
 9 2020-04-22 15:32:00 0.568   
10 2020-04-22 15:32:02 0.570   
# ℹ 90 more rows

here("data-raw/nurses-stress/stress/5C/5C_1586886712//HR.csv.gz") |>
  read()

# A tibble: 100 × 2
   collection_datetime    hr
   <dttm>              <dbl>
 1 2020-04-14 17:52:12  70  
 2 2020-04-14 17:52:42  76.8
 3 2020-04-14 17:52:51  79.3
 4 2020-04-14 17:53:12  89.4
 5 2020-04-14 17:53:32 101. 
 6 2020-04-14 17:53:35 102. 
 7 2020-04-14 17:53:42 102. 
 8 2020-04-14 17:53:45 102. 
 9 2020-04-14 17:53:52 100.0
10 2020-04-14 17:54:03  94.5
# ℹ 90 more rows
…
hr_data <- hr_files |>
  map(read) |> # NO BRACKETS
  list_rbind(names_to = "file_path_id")

hr_data

# A tibble: 57,183 × 3
   file_path_id                                        collection_datetime    hr
   <chr>                                               <dttm>              <dbl>
 1 C:/Users/SBUT0024/Documents/LearningR3/data-raw/nu… 2020-07-07 16:43:07  83.7
 2 C:/Users/SBUT0024/Documents/LearningR3/data-raw/nu… 2020-07-07 16:43:20  78.2
 3 C:/Users/SBUT0024/Documents/LearningR3/data-raw/nu… 2020-07-07 16:43:41  72.5
 4 C:/Users/SBUT0024/Documents/LearningR3/data-raw/nu… 2020-07-07 16:43:43  73.2
 5 C:/Users/SBUT0024/Documents/LearningR3/data-raw/nu… 2020-07-07 16:44:18  77.8
 6 C:/Users/SBUT0024/Documents/LearningR3/data-raw/nu… 2020-07-07 16:44:35  83.7
 7 C:/Users/SBUT0024/Documents/LearningR3/data-raw/nu… 2020-07-07 16:44:37  84.1
 8 C:/Users/SBUT0024/Documents/LearningR3/data-raw/nu… 2020-07-07 16:44:44  85.2
 9 C:/Users/SBUT0024/Documents/LearningR3/data-raw/nu… 2020-07-07 16:44:52  83.7
10 C:/Users/SBUT0024/Documents/LearningR3/data-raw/nu… 2020-07-07 16:45:02  83.1
# ℹ 57,173 more rows
